[
    {
          "fields": {
          "created_at": "2021-06-01",
          "updated_at": "2021-06-01",
          "deleted_at": null,
          "exam_name": "Cognitive Ability",
          "experience_level": "junior",
          "status": "unpublish",
          "duration": 60,
          "department": "d11df34a-0ba0-4c5c-80ec-60ac39cfc2d5",
          "created_by": "dd75f1ab-a1d7-46f7-94c4-2a23fc81f237"
          },
          "model": "exam.Exam",
          "pk": "32aad45a-2cfe-4b3c-8f98-3ed59e966598"
    },
    {
            "fields": {
            "created_at": "2021-06-01",
            "updated_at": "2021-06-01",
            "deleted_at": null,
            "exam_name": "Competitive Coding",
            "experience_level": "junior",
            "status": "unpublish",
            "duration": 60,
            "department": "f0e6c268-a736-46f6-b3ce-87216d1285d8",
            "created_by": "dd75f1ab-a1d7-46f7-94c4-2a23fc81f237"
            },
            "model": "exam.Exam",
            "pk": "6260cc1d-5f4c-4ef9-bbe2-6b06b27ec8c1"
    },
    {
              "fields": {
              "created_at": "2021-06-01",
              "updated_at": "2021-06-01",
              "deleted_at": null,
              "exam_name": "Group Discussion",
              "experience_level": "junior",
              "status": "draft",
              "duration": 60,
              "department": "36b599ed-d51a-47ee-a607-4d8a7d0ae5a3",
              "created_by": "dd75f1ab-a1d7-46f7-94c4-2a23fc81f237"
              },
              "model": "exam.Exam",
              "pk": "2f1bdce5-9eee-4038-a579-0d76f5c0a31b"
    }
]