[

  {
      "fields": {
          "permission": "CREATE_SUBADMIN"
      },
      "model": "common.Permission",
      "pk": "27ed8e14-f763-455d-89d9-0d2bd986de62"
  },
  {
      "fields": {
          "permission": "EDIT_SUBADMIN"
      },
      "model": "common.Permission",
      "pk": "872c2073-3911-4d4c-9a9c-bc9c02d1e31d"
  },
  {
      "fields": {
          "permission": "DELETE_SUBADMIN"
      },
      "model": "common.Permission",
      "pk": "4e23004c-5bd5-40d8-aa32-1fccaaaeeda9"
  },
  {
      "fields": {
          "permission": "VIEW_SUBADMIN"
      },
      "model": "common.Permission",
      "pk": "21b220d6-eb26-44c7-b9d2-6b241e30df7e"
  },
  {
      "fields": {
          "permission": "CREATE_EXAMINER"
      },
      "model": "common.Permission",
      "pk": "fe15c9f0-7b5f-45ad-91fc-a08930a0d45e"
  },
  {
      "fields": {
          "permission": "EDIT_EXAMINER"
      },
      "model": "common.Permission",
      "pk": "f6878844-2b94-48f7-b1db-e349b42a2bf5"
  },
  {
        "fields": {
            "permission": "DELETE_EXAMINER"
        },
        "model": "common.Permission",
        "pk": "e5a14c09-36bb-49bb-ac9e-e66a813618b8"
  },
  {
        "fields": {
            "permission": "VIEW_EXAMINER"
        },
        "model": "common.Permission",
        "pk": "2f459906-1307-4cae-90f6-440e19ae7c97"
  },
  {
        "fields": {
            "permission": "CREATE_EXAM"
        },
        "model": "common.Permission",
        "pk": "7cdc5b7c-8d70-4084-89dc-4321e6b28615"
  },
  {
        "fields": {
            "permission": "EDIT_EXAM"
        },
        "model": "common.Permission",
        "pk": "2f8c6bf2-3560-4b18-9a12-5b00f874ecb3"
  },

  {
        "fields": {
            "permission": "VIEW_EXAM"
        },
        "model": "common.Permission",
        "pk": "ebbf4d4c-cc7d-4e3d-9457-be8efadd8251"
  },
  {
        "fields": {
            "permission": "CREATE_JOB"
        },
        "model": "common.Permission",
        "pk": "59ead76e-5b4d-402c-8eb6-8498b4270b51"
  },
  {
        "fields": {
            "permission": "DELETE_JOB"
        },
        "model": "common.Permission",
        "pk": "e7607b3a-6555-48f6-b1c4-08fd76cf52a4"
  },
  {
        "fields": {
            "permission": "EDIT_JOB"
        },
        "model": "common.Permission",
        "pk": "84eb77f7-9e5c-4d14-b9ce-4477a1c0611d"
  },
  {
        "fields": {
            "permission": "VIEW_JOB"
        },
        "model": "common.Permission",
        "pk": "ca3f9e43-f2cf-4c6f-bdc0-400277583a36"
  },
  {
        "fields": {
            "permission": "CREATE_CANDIDATE"
        },
        "model": "common.Permission",
        "pk": "a1c3c30a-b2d1-4f72-911f-95add2cb8f86"
  },
  {
        "fields": {
            "permission": "EDIT_CANDIDATE"
        },
        "model": "common.Permission",
        "pk": "ade2c2eb-ce2e-4192-9ecf-2e0615692167"
  },
  {
        "fields": {
            "permission": "DELETE_CANDIDATE"
        },
        "model": "common.Permission",
        "pk": "b5838542-7175-4db6-8d42-5f4ea32a3fc3"
  },
  {
        "fields": {
            "permission": "VIEW_CANDIDATE"
        },
        "model": "common.Permission",
        "pk": "537c29fc-7e6d-455b-90b7-aa641c0209fc"
  },
  {
        "fields": {
            "permission": "PASS_FAIL_CANDIDATE"
        },
        "model": "common.Permission",
        "pk": "09339b63-2ccc-40b6-8143-3f5a06cd26e0"
  },
  {
        "fields": {
            "permission": "CREATE_QUESTION_BANK"
        },
        "model": "common.Permission",
        "pk": "e150c60f-0b9b-4de6-840b-8101cc6360d9"
  },
  {
        "fields": {
            "permission": "EDIT_QUESTION_BANK"
        },
        "model": "common.Permission",
        "pk": "7edfead6-67dd-4d94-81d9-bae2ca174530"
  },
  {
        "fields": {
            "permission": "DELETE_QUESTION_BANK"
        },
        "model": "common.Permission",
        "pk": "51d21f8a-12df-42a1-aa8a-cc24815aabf1"
  },
  {
        "fields": {
            "permission": "VIEW_QUESTION_BANK"
        },
        "model": "common.Permission",
        "pk": "322dc454-7812-4e4a-9832-3b421d650a78"
  },
  {
        "fields": {
            "permission": "VIEW_RESULT"
        },
        "model": "common.Permission",
        "pk": "2fabb5a3-a415-4260-baac-5b6b7d1e4d66"
  },
  {
        "fields": {
            "permission": "CREATE_DEPARTMENT"
        },
        "model": "common.Permission",
        "pk": "ac9954e0-9509-4516-9d4d-a825ed038b3b"
  },
  {
        "fields": {
            "permission": "EDIT_DEPARTMENT"
        },
        "model": "common.Permission",
        "pk": "6dc4dc69-b7b7-4c7b-970f-3a7284bac459"
  },
  {
        "fields": {
            "permission": "VIEW_DEPARTMENT"
        },
        "model": "common.Permission",
        "pk": "348d82cf-5d02-4c66-853e-6b96735a8f25"
  },
  {
        "fields": {
            "permission": "DELETE_DEPARTMENT"
        },
        "model": "common.Permission",
        "pk": "30861268-655e-47b3-a77a-1411709fb6df"
  },
  {
        "fields": {
            "permission": "HIRE_REJECT_CANDIDATE"
        },
        "model": "common.Permission",
        "pk": "4252b502-a6a3-4db8-9c85-6dbe41467c67"
  },
  {
        "fields": {
            "permission": "GENERATE_EXAM_LINK"
        },
        "model": "common.Permission",
        "pk": "48dbeb03-77bc-435f-bc8d-e5f78e8d3e1b"
  },
  {
        "fields": {
            "permission": "DELETE_EXAM"
        },
        "model": "common.Permission",
        "pk": "3641defd-3198-4c4c-babe-1e92548be2fc"
  },
   {
        "fields": {
            "permission": "GIVE_PERMISSIONS"
        },
        "model": "common.Permission",
        "pk": "fe058f09-7d38-447b-ba3c-4edd733b446e"
  }
]
